A
B+
B
C+
B+
A-
B+
A
A
B+
B+
A
B-
B+
B+
A
A
A-
B+
D+
B
B+
B+
B+
A
B+
A
B+
B+
A
A
B+
B-
B
B+
A-
A
B+
A
A
A
B+
B+
D+
B+
B+
B+
B+
B+
B+
B+
B-
A
B+
A
B+
B+
A
C
B+
B
B+
D+
B+
B+
A
B+
A
A
B
D+
B+
B+
A-
D+
F
A
B-
C
A
B-
B+
A
B+
A
B+
B+
A
A-
B-
B+
C+
A
B+
D+
D+
B+
B+
B+
A
A
D+
B+
B-
A
A
B+
B+
C
B+
B+
B+
B+
A
B+
A
F
F
A
A
B+
B+
D+
D+
B+
A
A
A
B
D+
B-
B+
B+
A-
A
B+
A
B+
C-
A
B+
B-
B-
D+
F
C+
B+
A
B+
B+
B+
B+
B+
B-
A
A
A
B+
D+
A
A
B-
B-
D+
C-
B+
B+
B+
A
B-
C-
D+
D+
A
A
A
B+
F
D+
B+
B+
B+
B-
A
B-
B-
A
B+
D+
B+
B+
B+
A
B+
B-
B+
B+
F
B-
B+
B
B+
A-
A
B+
B-
A
B+
F
B+
A
B+
B+
B+
A
C+
B
A
B+
B+
B-
F
A
B-
B+
C
B+
A
B+
B+
D+
B+
B+
A
B+
A-
C+
B-
B+
C-
B-
A
A
B+
B+
B+
A
B+
B+
B-
A-
B+
B+
B+
B+
B+
B+
B-
B-
B+
B+
B+
