B+
B+
B-
B
A
A
D+
A
B+
B+
B+
C+
D+
B-
B+
B-
D+
B+
D-
A-
C
A
A
B-
B+
B+
B+
A
B-
B+
B-
A
B+
B+
B+
B+
B
B+
B+
B+
B+
D+
B+
B+
B-
B+
B+
A
B-
B+
B+
A
A
B+
B+
C
A-
B+
D+
B+
B+
A
A-
D+
D+
B+
B+
B+
A
B+
C-
D+
B-
B+
B+
A
B
A
A
B+
B-
B+
B+
A
B-
B+
C-
B+
B
A
C+
B+
B+
C+
B+
A
A
B+
B+
B+
A
B
A
B+
D+
B+
A
A
B+
A
A-
A
D+
B+
B+
B-
A
A
B+
B+
A
B+
A-
B-
B+
A
A
B+
C+
B+
B
A
B+
C
B+
B+
A
C+
B+
D+
A
A-
A
C
B-
A
B+
F
A
A
B-
D+
B+
A
C
A
B+
B+
B+
B
B+
A
B+
D+
C
B+
B+
B+
B+
B-
C+
B+
B+
C+
B+
B+
A-
B+
B+
B+
D+
A
B-
C+
B
B+
A-
A-
B+
B+
B+
A
A
B+
B+
A-
B+
B+
B
B+
A
B-
F
A
B+
A
B+
D+
B-
B+
A-
B+
